[{
    "fonts": [{
            "name": "title",
            "size": 36,
            "family": "Roboto",
            "category": "serif",
            "isTitle": true
        },
        {
            "name": "body",
            "size": 16,
            "family": "Helvetica Neue",
            "category": "sans-serif"
    }],
    "colors": [
        {
            "hex": "#A7CDCC",
            "name": "Cor principal",
            "description": "Cor usada em botões e links"
        },
        {
            "hex": "#1fb5f6",
            "name": "Cor secundária"
        },
        {
            "hex": "#b7c2c2",
            "name": "Cor de hover"
        }
    ]
}]